{
	"info": {
		"_postman_id": "4ab64e69-3f0f-4312-aa9c-71524c241f9a",
		"name": "university_management_system",
		"description": "University management system",
		"schema": "https://schema.getpostman.com/json/collection/v2.1.0/collection.json",
		"_exporter_id": "18814069"
	},
	"item": [
		{
			"name": "auth",
			"item": [
				{
					"name": "login",
					"request": {
						"method": "POST",
						"header": [],
						"body": {
							"mode": "raw",
							"raw": "{\r\n    \"email\": \"arabboyismoilov5896@gmail.com\",\r\n    \"password\":\"1234\"\r\n}",
							"options": {
								"raw": {
									"language": "json"
								}
							}
						},
						"url": {
							"raw": "http://localhost:8084/api/v1/auth/login",
							"protocol": "http",
							"host": [
								"localhost"
							],
							"port": "8084",
							"path": [
								"api",
								"v1",
								"auth",
								"login"
							]
						},
						"description": "To login the system, you need to enter email and password. after that you get access and refresh tokens which are you can use to authenticate and authorize in system"
					},
					"response": []
				},
				{
					"name": "refresh token",
					"request": {
						"method": "GET",
						"header": [
							{
								"key": "Authorization",
								"value": "Bearer eyJ0eXAiOiJKV1QiLCJhbGciOiJIUzI1NiJ9.eyJzdWIiOiJhcmFiYm95aXNtb2lsb3Y1ODk2QGdtYWlsLmNvbSIsImV4cCI6MTY4NzYzMjI5MX0._li-zm8ge03vsc6AOzUgjDG5QssD4Vpv0TJ1vw7bBhw",
								"type": "text"
							}
						],
						"url": {
							"raw": "http://localhost:8084/api/v1/auth/refresh",
							"protocol": "http",
							"host": [
								"localhost"
							],
							"port": "8084",
							"path": [
								"api",
								"v1",
								"auth",
								"refresh"
							]
						},
						"description": "Refresh token is used to take access tokens as their lifetime is longer than access tokens, refresh token are usually alive for 30 days"
					},
					"response": []
				}
			]
		},
		{
			"name": "university",
			"item": [
				{
					"name": "create university",
					"request": {
						"method": "POST",
						"header": [
							{
								"key": "Authorization",
								"value": "Bearer {{admin_token}}",
								"type": "text"
							}
						],
						"body": {
							"mode": "raw",
							"raw": "{\r\n    \"name\":\"Moliya\",\r\n    \"address\": \"Amir Temur ko'chasi 4-uy\",\r\n    \"openedYear\": 1998\r\n}",
							"options": {
								"raw": {
									"language": "json"
								}
							}
						},
						"url": {
							"raw": "http://localhost:8084/api/v1/university",
							"protocol": "http",
							"host": [
								"localhost"
							],
							"port": "8084",
							"path": [
								"api",
								"v1",
								"university"
							]
						}
					},
					"response": []
				},
				{
					"name": "get all university",
					"request": {
						"method": "GET",
						"header": [
							{
								"key": "Authorization",
								"value": "Bearer {{admin_token}}",
								"type": "text"
							}
						],
						"url": {
							"raw": "http://localhost:8084/api/v1/university?pageNumber=0&pageSize=4",
							"protocol": "http",
							"host": [
								"localhost"
							],
							"port": "8084",
							"path": [
								"api",
								"v1",
								"university"
							],
							"query": [
								{
									"key": "pageNumber",
									"value": "0"
								},
								{
									"key": "pageSize",
									"value": "4"
								}
							]
						}
					},
					"response": []
				},
				{
					"name": "get university",
					"request": {
						"method": "GET",
						"header": [
							{
								"key": "Authorization",
								"value": "Bearer {{admin_token}}",
								"type": "text"
							}
						],
						"url": {
							"raw": "http://localhost:8084/api/v1/university/2",
							"protocol": "http",
							"host": [
								"localhost"
							],
							"port": "8084",
							"path": [
								"api",
								"v1",
								"university",
								"2"
							]
						}
					},
					"response": []
				},
				{
					"name": "edit university",
					"request": {
						"method": "PUT",
						"header": [
							{
								"key": "Authorization",
								"value": "Bearer {{admin_token}}",
								"type": "text"
							}
						],
						"body": {
							"mode": "raw",
							"raw": "{\r\n    \"address\": \"Amir Temur ko'chasi 364-uy\"\r\n}",
							"options": {
								"raw": {
									"language": "json"
								}
							}
						},
						"url": {
							"raw": "http://localhost:8084/api/v1/university/2",
							"protocol": "http",
							"host": [
								"localhost"
							],
							"port": "8084",
							"path": [
								"api",
								"v1",
								"university",
								"2"
							]
						}
					},
					"response": []
				},
				{
					"name": "delete university",
					"request": {
						"method": "DELETE",
						"header": [
							{
								"key": "Authorization",
								"value": "Bearer {{admin_token}}",
								"type": "text"
							}
						],
						"url": {
							"raw": "http://localhost:8084/api/v1/university/1",
							"protocol": "http",
							"host": [
								"localhost"
							],
							"port": "8084",
							"path": [
								"api",
								"v1",
								"university",
								"1"
							]
						}
					},
					"response": []
				}
			]
		},
		{
			"name": "faculty",
			"item": [
				{
					"name": "create faculty",
					"request": {
						"method": "POST",
						"header": [
							{
								"key": "Authorization",
								"value": "Bearer {{admin_token}}",
								"type": "text"
							}
						],
						"body": {
							"mode": "raw",
							"raw": "{\r\n    \"name\":\"Economics\",\r\n    \"universityId\":2\r\n}",
							"options": {
								"raw": {
									"language": "json"
								}
							}
						},
						"url": {
							"raw": "http://localhost:8084/api/v1/faculty",
							"protocol": "http",
							"host": [
								"localhost"
							],
							"port": "8084",
							"path": [
								"api",
								"v1",
								"faculty"
							]
						}
					},
					"response": []
				},
				{
					"name": "get all faculties",
					"request": {
						"method": "GET",
						"header": []
					},
					"response": []
				},
				{
					"name": "get faculty",
					"request": {
						"method": "GET",
						"header": []
					},
					"response": []
				},
				{
					"name": "edit faculty",
					"request": {
						"method": "PUT",
						"header": [
							{
								"key": "Authorization",
								"value": "Bearer {{admin_token}}",
								"type": "text"
							}
						],
						"body": {
							"mode": "raw",
							"raw": "{\r\n    \"name\":\"Moliya fakulteti\"\r\n}",
							"options": {
								"raw": {
									"language": "json"
								}
							}
						},
						"url": {
							"raw": "http://localhost:8084/api/v1/faculty/2",
							"protocol": "http",
							"host": [
								"localhost"
							],
							"port": "8084",
							"path": [
								"api",
								"v1",
								"faculty",
								"2"
							]
						}
					},
					"response": []
				},
				{
					"name": "delete faculty",
					"request": {
						"method": "DELETE",
						"header": [
							{
								"key": "Authorization",
								"value": "Bearer {{admin_token}}",
								"type": "text"
							}
						],
						"url": {
							"raw": "http://localhost:8084/api/v1/faculty/8",
							"protocol": "http",
							"host": [
								"localhost"
							],
							"port": "8084",
							"path": [
								"api",
								"v1",
								"faculty",
								"8"
							]
						}
					},
					"response": []
				}
			]
		},
		{
			"name": "group",
			"item": [
				{
					"name": "create group",
					"request": {
						"method": "POST",
						"header": [
							{
								"key": "Authorization",
								"value": "Bearer {{admin_token}}",
								"type": "text"
							}
						],
						"body": {
							"mode": "raw",
							"raw": "{\r\n    \"name\":\"IM-93\",\r\n    \"openedYear\":2023,\r\n    \"facultyId\": 9\r\n}",
							"options": {
								"raw": {
									"language": "json"
								}
							}
						},
						"url": {
							"raw": "http://localhost:8084/api/v1/group",
							"protocol": "http",
							"host": [
								"localhost"
							],
							"port": "8084",
							"path": [
								"api",
								"v1",
								"group"
							]
						}
					},
					"response": []
				},
				{
					"name": "get all groups",
					"request": {
						"method": "GET",
						"header": []
					},
					"response": []
				},
				{
					"name": "get group",
					"request": {
						"method": "GET",
						"header": []
					},
					"response": []
				},
				{
					"name": "edit group",
					"request": {
						"method": "PUT",
						"header": [
							{
								"key": "Authorization",
								"value": "Bearer {{admin_token}}",
								"type": "text"
							}
						],
						"body": {
							"mode": "raw",
							"raw": "{\r\n    \"name\": \"I-51\",\r\n    \"openedYear\": 2022\r\n}",
							"options": {
								"raw": {
									"language": "json"
								}
							}
						},
						"url": {
							"raw": "http://localhost:8084/api/v1/group/1",
							"protocol": "http",
							"host": [
								"localhost"
							],
							"port": "8084",
							"path": [
								"api",
								"v1",
								"group",
								"1"
							]
						}
					},
					"response": []
				},
				{
					"name": "get faculty groups",
					"request": {
						"method": "GET",
						"header": []
					},
					"response": []
				},
				{
					"name": "delete group",
					"request": {
						"method": "DELETE",
						"header": [
							{
								"key": "Authorization",
								"value": "Bearer {{admin_token}}",
								"type": "text"
							}
						],
						"url": {
							"raw": "http://localhost:8084/api/v1/group/5",
							"protocol": "http",
							"host": [
								"localhost"
							],
							"port": "8084",
							"path": [
								"api",
								"v1",
								"group",
								"5"
							]
						}
					},
					"response": []
				},
				{
					"name": "add subject to group",
					"request": {
						"method": "POST",
						"header": [
							{
								"key": "Authorization",
								"value": "Bearer {{admin_token}}",
								"type": "text"
							}
						],
						"body": {
							"mode": "raw",
							"raw": "{\r\n    \"subjectId\":5,\r\n    \"groupId\":6\r\n}",
							"options": {
								"raw": {
									"language": "json"
								}
							}
						},
						"url": {
							"raw": "http://localhost:8084/api/v1/group/addsubject",
							"protocol": "http",
							"host": [
								"localhost"
							],
							"port": "8084",
							"path": [
								"api",
								"v1",
								"group",
								"addsubject"
							]
						}
					},
					"response": []
				}
			]
		},
		{
			"name": "subject",
			"item": [
				{
					"name": "create subject",
					"request": {
						"method": "POST",
						"header": [
							{
								"key": "Authorization",
								"value": "Bearer {{admin_token}}",
								"type": "text"
							}
						],
						"body": {
							"mode": "raw",
							"raw": "{\r\n    \"name\":\"Physics\",\r\n    \"hours\":32,\r\n    \"universityId\":\"2\"\r\n    \r\n}",
							"options": {
								"raw": {
									"language": "json"
								}
							}
						},
						"url": {
							"raw": "http://localhost:8084/api/v1/subject",
							"protocol": "http",
							"host": [
								"localhost"
							],
							"port": "8084",
							"path": [
								"api",
								"v1",
								"subject"
							]
						}
					},
					"response": []
				},
				{
					"name": "get all subjects",
					"request": {
						"method": "GET",
						"header": []
					},
					"response": []
				},
				{
					"name": "get subject",
					"request": {
						"method": "GET",
						"header": []
					},
					"response": []
				},
				{
					"name": "edit subject",
					"request": {
						"method": "PUT",
						"header": [
							{
								"key": "Authorization",
								"value": "Bearer {{admin_token}}",
								"type": "text"
							}
						],
						"body": {
							"mode": "raw",
							"raw": "{\r\n    \"name\":\"Math\"\r\n}",
							"options": {
								"raw": {
									"language": "json"
								}
							}
						},
						"url": {
							"raw": "http://localhost:8084/api/v1/subject/1",
							"protocol": "http",
							"host": [
								"localhost"
							],
							"port": "8084",
							"path": [
								"api",
								"v1",
								"subject",
								"1"
							]
						}
					},
					"response": []
				},
				{
					"name": "get student subjects",
					"request": {
						"method": "GET",
						"header": []
					},
					"response": []
				},
				{
					"name": "delete subject",
					"request": {
						"method": "DELETE",
						"header": [
							{
								"key": "Authorization",
								"value": "Bearer {{admin_token}}",
								"type": "text"
							}
						],
						"url": {
							"raw": "http://localhost:8084/api/v1/subject/4",
							"protocol": "http",
							"host": [
								"localhost"
							],
							"port": "8084",
							"path": [
								"api",
								"v1",
								"subject",
								"4"
							]
						}
					},
					"response": []
				},
				{
					"name": "get group subjects",
					"request": {
						"method": "GET",
						"header": []
					},
					"response": []
				}
			]
		},
		{
			"name": "student",
			"item": [
				{
					"name": "create student",
					"request": {
						"method": "POST",
						"header": [
							{
								"key": "Authorization",
								"value": "Bearer {{admin_token}}",
								"type": "text"
							}
						],
						"body": {
							"mode": "raw",
							"raw": "{\r\n    \"email\":\"arabboyismoilov115@gmail.com\",\r\n    \"password\":\"1235\",\r\n    \"name\":\"Asilbek Ismoilov\",\r\n    \"groupId\":6\r\n}",
							"options": {
								"raw": {
									"language": "json"
								}
							}
						},
						"url": {
							"raw": "http://localhost:8084/api/v1/student",
							"protocol": "http",
							"host": [
								"localhost"
							],
							"port": "8084",
							"path": [
								"api",
								"v1",
								"student"
							]
						},
						"description": "When student created, the system send an email about successful creation of student account to student email. The email also provides credentials to enter the system. Email looks like this:\n\nDear student, 'Moliya' university created a STUDENT account for you.  \nTo enter it you can use following crediantials, please dont forget changing your password after successfully login.  \nCredentials:  \nPassword: 1235  \nUsername: [ismoiloff0101@gmail.com](mailto:ismoiloff0101@gmail.com)  \nThanks for your attention. If this is wrong mail, please just forget it!"
					},
					"response": []
				},
				{
					"name": "get all students",
					"request": {
						"method": "GET",
						"header": []
					},
					"response": []
				},
				{
					"name": "get student",
					"request": {
						"method": "GET",
						"header": []
					},
					"response": []
				},
				{
					"name": "edit student",
					"request": {
						"method": "PUT",
						"header": [
							{
								"key": "Authorization",
								"value": "Bearer {{admin_token}}",
								"type": "text"
							}
						],
						"body": {
							"mode": "raw",
							"raw": "{\r\n    \"address\":\"Samarqand shahri\",\r\n    \"groupId\":2\r\n}",
							"options": {
								"raw": {
									"language": "json"
								}
							}
						},
						"url": {
							"raw": "http://localhost:8084/api/v1/student/4",
							"protocol": "http",
							"host": [
								"localhost"
							],
							"port": "8084",
							"path": [
								"api",
								"v1",
								"student",
								"4"
							]
						}
					},
					"response": []
				},
				{
					"name": "search student by name",
					"request": {
						"method": "GET",
						"header": []
					},
					"response": []
				},
				{
					"name": "generate student report pdf",
					"request": {
						"method": "GET",
						"header": []
					},
					"response": []
				},
				{
					"name": "delete student",
					"request": {
						"method": "DELETE",
						"header": [
							{
								"key": "Authorization",
								"value": "Bearer {{admin_token}}",
								"type": "text"
							}
						],
						"url": {
							"raw": "http://localhost:8084/api/v1/student/4",
							"protocol": "http",
							"host": [
								"localhost"
							],
							"port": "8084",
							"path": [
								"api",
								"v1",
								"student",
								"4"
							]
						}
					},
					"response": []
				}
			]
		},
		{
			"name": "exams",
			"item": [
				{
					"name": "create exam",
					"request": {
						"method": "POST",
						"header": [
							{
								"key": "Authorization",
								"value": "Bearer {{admin_token}}",
								"type": "text"
							}
						],
						"body": {
							"mode": "raw",
							"raw": "{\r\n    \"name\":\"Yakuniy nazorat\",\r\n    \"subjectId\":5\r\n}",
							"options": {
								"raw": {
									"language": "json"
								}
							}
						},
						"url": {
							"raw": "http://localhost:8084/api/v1/exam",
							"protocol": "http",
							"host": [
								"localhost"
							],
							"port": "8084",
							"path": [
								"api",
								"v1",
								"exam"
							]
						}
					},
					"response": []
				},
				{
					"name": "get all exams",
					"request": {
						"method": "GET",
						"header": []
					},
					"response": []
				},
				{
					"name": "get exam",
					"request": {
						"method": "GET",
						"header": []
					},
					"response": []
				},
				{
					"name": "edit exam",
					"request": {
						"method": "PUT",
						"header": [
							{
								"key": "Authorization",
								"value": "Bearer {{admin_token}}",
								"type": "text"
							}
						],
						"body": {
							"mode": "raw",
							"raw": "{\r\n    \"name\":\"Joriy nazorat\"\r\n}",
							"options": {
								"raw": {
									"language": "json"
								}
							}
						},
						"url": {
							"raw": "http://localhost:8084/api/v1/exam/1",
							"protocol": "http",
							"host": [
								"localhost"
							],
							"port": "8084",
							"path": [
								"api",
								"v1",
								"exam",
								"1"
							]
						}
					},
					"response": []
				},
				{
					"name": "delete exam",
					"request": {
						"method": "DELETE",
						"header": [
							{
								"key": "Authorization",
								"value": "Bearer {{admin_token}}",
								"type": "text"
							}
						],
						"url": {
							"raw": "http://localhost:8084/api/v1/exam/6",
							"protocol": "http",
							"host": [
								"localhost"
							],
							"port": "8084",
							"path": [
								"api",
								"v1",
								"exam",
								"6"
							]
						}
					},
					"response": []
				},
				{
					"name": "get exams by subject id",
					"request": {
						"method": "GET",
						"header": []
					},
					"response": []
				}
			]
		},
		{
			"name": "mark",
			"item": [
				{
					"name": "create mark",
					"request": {
						"method": "POST",
						"header": [
							{
								"key": "Authorization",
								"value": "Bearer {{admin_token}}",
								"type": "text"
							}
						],
						"body": {
							"mode": "raw",
							"raw": "{\r\n    \"value\":92,\r\n    \"studentId\":5,\r\n    \"examId\":7\r\n}",
							"options": {
								"raw": {
									"language": "json"
								}
							}
						},
						"url": {
							"raw": "http://localhost:8084/api/v1/mark",
							"protocol": "http",
							"host": [
								"localhost"
							],
							"port": "8084",
							"path": [
								"api",
								"v1",
								"mark"
							]
						}
					},
					"response": []
				},
				{
					"name": "get all marks",
					"request": {
						"method": "GET",
						"header": []
					},
					"response": []
				},
				{
					"name": "get mark",
					"request": {
						"method": "GET",
						"header": []
					},
					"response": []
				},
				{
					"name": "edit mark",
					"request": {
						"method": "PUT",
						"header": [
							{
								"key": "Authorization",
								"value": "Bearer {{admin_token}}",
								"type": "text"
							}
						],
						"body": {
							"mode": "raw",
							"raw": "{\r\n    \"value\":100\r\n}",
							"options": {
								"raw": {
									"language": "json"
								}
							}
						},
						"url": {
							"raw": "http://localhost:8084/api/v1/mark/11",
							"protocol": "http",
							"host": [
								"localhost"
							],
							"port": "8084",
							"path": [
								"api",
								"v1",
								"mark",
								"11"
							]
						}
					},
					"response": []
				},
				{
					"name": "get marks by groupId and examId",
					"request": {
						"method": "GET",
						"header": []
					},
					"response": []
				},
				{
					"name": "generate excel file for marks by groupId and examId",
					"request": {
						"method": "GET",
						"header": [
							{
								"key": "Authorization",
								"value": "Bearer {{admin_token}}",
								"type": "text"
							}
						],
						"url": {
							"raw": "http://localhost:8084/api/v1/mark/file/group/1?examId=1",
							"protocol": "http",
							"host": [
								"localhost"
							],
							"port": "8084",
							"path": [
								"api",
								"v1",
								"mark",
								"file",
								"group",
								"1"
							],
							"query": [
								{
									"key": "examId",
									"value": "1"
								}
							]
						}
					},
					"response": []
				},
				{
					"name": "delete mark",
					"request": {
						"method": "DELETE",
						"header": [
							{
								"key": "Authorization",
								"value": "Bearer {{admin_token}}",
								"type": "text"
							}
						],
						"url": {
							"raw": "http://localhost:8084/api/v1/mark/6",
							"protocol": "http",
							"host": [
								"localhost"
							],
							"port": "8084",
							"path": [
								"api",
								"v1",
								"mark",
								"6"
							]
						}
					},
					"response": []
				},
				{
					"name": "delete marks by examId",
					"request": {
						"method": "DELETE",
						"header": [
							{
								"key": "Authorization",
								"value": "Bearer {{admin_token}}",
								"type": "text"
							}
						],
						"url": {
							"raw": "http://localhost:8084/api/v1/mark/exam/7",
							"protocol": "http",
							"host": [
								"localhost"
							],
							"port": "8084",
							"path": [
								"api",
								"v1",
								"mark",
								"exam",
								"7"
							]
						}
					},
					"response": []
				}
			]
		},
		{
			"name": "mail",
			"item": [
				{
					"name": "send mail to any email",
					"request": {
						"method": "POST",
						"header": [
							{
								"key": "Authorization",
								"value": "Bearer {{admin_token}}",
								"type": "text"
							}
						],
						"body": {
							"mode": "raw",
							"raw": "{\r\n    \"to\":\"tohibekturgunboyev@gmail.com\",\r\n    \"subject\":\"test\",\r\n    \"body\":\"test email message\"\r\n}",
							"options": {
								"raw": {
									"language": "json"
								}
							}
						},
						"url": {
							"raw": "http://localhost:8084/api/v1/mail",
							"protocol": "http",
							"host": [
								"localhost"
							],
							"port": "8084",
							"path": [
								"api",
								"v1",
								"mail"
							]
						}
					},
					"response": []
				},
				{
					"name": "send mail to student",
					"request": {
						"method": "POST",
						"header": [
							{
								"key": "Authorization",
								"value": "Bearer {{admin_token}}",
								"type": "text"
							},
							{
								"key": "Content-Type",
								"value": "application/json",
								"type": "text",
								"disabled": true
							},
							{
								"key": "Content-Type",
								"value": "application/pdf",
								"type": "text",
								"disabled": true
							}
						],
						"body": {
							"mode": "raw",
							"raw": "{\r\n    \"subject\":\"Test student mail\",\r\n    \"body\":\"shunchaki test etibor bermeng!\"\r\n}",
							"options": {
								"raw": {
									"language": "json"
								}
							}
						},
						"url": {
							"raw": "http://localhost:8084/api/v1/mail/student/1",
							"protocol": "http",
							"host": [
								"localhost"
							],
							"port": "8084",
							"path": [
								"api",
								"v1",
								"mail",
								"student",
								"1"
							],
							"query": [
								{
									"key": "file",
									"value": null,
									"disabled": true
								}
							]
						}
					},
					"response": []
				},
				{
					"name": "send mail to group of students",
					"request": {
						"method": "POST",
						"header": [
							{
								"key": "Authorization",
								"value": "Bearer {{admin_token}}",
								"type": "text"
							}
						],
						"body": {
							"mode": "raw",
							"raw": "{\r\n    \"subject\":\"Test group mail\",\r\n    \"body\":\"shunchaki test etibor bermeng!\"\r\n}",
							"options": {
								"raw": {
									"language": "json"
								}
							}
						},
						"url": {
							"raw": "http://localhost:8084/api/v1/mail/group/1",
							"protocol": "http",
							"host": [
								"localhost"
							],
							"port": "8084",
							"path": [
								"api",
								"v1",
								"mail",
								"group",
								"1"
							]
						}
					},
					"response": []
				}
			]
		},
		{
			"name": "given tasks",
			"item": [
				{
					"name": "get  subjects by student id",
					"request": {
						"method": "GET",
						"header": [
							{
								"key": "Authorization",
								"value": "Bearer {{admin_token}}",
								"type": "text"
							}
						],
						"url": {
							"raw": "http://localhost:8084/api/v1/subject/student/3",
							"protocol": "http",
							"host": [
								"localhost"
							],
							"port": "8084",
							"path": [
								"api",
								"v1",
								"subject",
								"student",
								"3"
							]
						}
					},
					"response": []
				},
				{
					"name": "get subjects by group id",
					"request": {
						"method": "GET",
						"header": []
					},
					"response": []
				},
				{
					"name": "get groups by faculty id",
					"request": {
						"method": "GET",
						"header": []
					},
					"response": []
				},
				{
					"name": "search student by name",
					"request": {
						"method": "GET",
						"header": []
					},
					"response": []
				},
				{
					"name": "get marks by groupId and examId",
					"request": {
						"method": "GET",
						"header": [
							{
								"key": "Authorization",
								"value": "Bearer {{admin_token}}",
								"type": "text"
							}
						],
						"url": {
							"raw": "http://localhost:8084/api/v1/mark/group/1?examId=1",
							"protocol": "http",
							"host": [
								"localhost"
							],
							"port": "8084",
							"path": [
								"api",
								"v1",
								"mark",
								"group",
								"1"
							],
							"query": [
								{
									"key": "examId",
									"value": "1"
								}
							]
						}
					},
					"response": []
				},
				{
					"name": "generate excel file for marks by groupId and examId",
					"request": {
						"method": "GET",
						"header": []
					},
					"response": []
				},
				{
					"name": "generate student report pdf",
					"request": {
						"method": "GET",
						"header": [
							{
								"key": "Authorization",
								"value": "Bearer {{admin_token}}",
								"type": "text"
							}
						],
						"url": {
							"raw": "http://localhost:8084/api/v1/student/report/1",
							"protocol": "http",
							"host": [
								"localhost"
							],
							"port": "8084",
							"path": [
								"api",
								"v1",
								"student",
								"report",
								"1"
							]
						}
					},
					"response": []
				}
			]
		}
	],
	"event": [
		{
			"listen": "prerequest",
			"script": {
				"type": "text/javascript",
				"exec": [
					""
				]
			}
		},
		{
			"listen": "test",
			"script": {
				"type": "text/javascript",
				"exec": [
					""
				]
			}
		}
	],
	"variable": [
		{
			"key": "admin_token",
			"value": "eyJ0eXAiOiJKV1QiLCJhbGciOiJIUzI1NiJ9.eyJzdWIiOiJhcmFiYm95aXNtb2lsb3Y1ODk2QGdtYWlsLmNvbSIsInJvbGVzIjpbIlJPTEVfQURNSU4iXSwiZXhwIjoxNjg1OTQwMjkxfQ.IXsAayc1tENi7U3VGuitiJoEbUOWlJP_o28ctiw6gM8",
			"type": "string"
		}
	]
}